{
  "packageDirectories": [
    {
      "path": "oauth2",
      "package": "OAuth2",
      "versionName": "ver 0.1.0",
      "versionNumber": "0.1.0.NEXT",
      "default": true
    }
  ],
  "namespace": "",
  "sfdcLoginUrl": "https://login.salesforce.com",
  "sourceApiVersion": "47.0",
  "packageAliases": {
    "OAuth2": "0Ho6g000000CaaUCAS"
  }
}